<svg xmlns="http://www.w3.org/2000/svg" width="105" height="32" fill="none" viewBox="0 0 105 32">
    <path fill="#fff" fill-rule="evenodd" d="M10.415 2.336C13.94.787 17.11 1.01 17.11 1.01c-.262.205-.317.261-.541.485-2.09 1.865-3.376 4.42-3.656 7.2-.15 1.455 0 2.91.41 4.29.112.354.41.727-.41 1.902-.28.392-.504.82-.653 1.287C8.7 14.552 6.348 11.01 6.162 7.148c-.019-.485-.41-2.145 2.63-3.992.447-.28 1.026-.56 1.623-.82z" clip-rule="evenodd"/>
    <path fill="#fff" fill-rule="evenodd" d="M5.51 5.6c.018-.131-.355.242-.822.764-.802.877-1.977 2.611-3.096 5.689-.224.597-.336 1.25-.466 1.846-.504 2.63.634 3.582 1.119 3.973.187.168.392.317.597.467 1.436 1.044 3.19 1.753 5.092 1.94 1.305.13 2.611 0 3.86-.355.3-.093.598-.186.877-.298-.186-.336-.335-.71-.429-1.082-.056-.205-.093-.373-.13-.616-.056-.429-.094-.69-.187-.895-.242-.504-.932-.746-1.175-.877-1.734-.988-2.835-2.256-3.805-3.954-.727-1.268-1.212-2.667-1.399-4.14-.112-.803-.13-1.623-.037-2.463z" clip-rule="evenodd"/>
    <path fill="#fff" fill-rule="evenodd" d="M8.512 27.627c.15-.037.28-.093.429-.13 2.78-.933 5.11-3.04 6.286-5.857-.504-.15-.914-.354-1.4-.709-.354-.26-.596-.503-.857-.522-.373-.037-.914.187-1.231.28-1.269.336-2.593.429-3.898.298-1.754-.168-3.395-.746-4.831-1.641-.802-.504-1.921-1.548-1.921-1.548.056.895.074.932.13 1.324 0 0 .224 2.35 1.567 4.607.709 1.175 1.51 2.238 2.145 2.966 1.548 1.753 2.816 1.156 3.581.932z" clip-rule="evenodd"/>
    <path fill="#fff" fill-rule="evenodd" d="M7.132 28.746s1.567-.298 2.406-.615c2.369-.895 4.42-2.593 5.707-4.85.262-.447.41-1.342 1.623-1.398.616-.02 1.25-.243 1.79-.56.131.317.187.616.28.951.112.41.206.82.262 1.25.13.858.149 1.716.074 2.574-.075.783-.242 1.548-.485 2.257-.186.54-.84 2.145-2.5 2.443-.969.168-2.237.317-3.897.075-3.339-.504-5.26-2.127-5.26-2.127z" clip-rule="evenodd"/>
    <path fill="#fff" fill-rule="evenodd" d="M18.79 30.07s.036-.018.167-.335c.168-.373.373-.84.466-1.1.28-.821.467-1.66.56-2.556.13-1.417.018-2.854-.392-4.196-.224-.746-.205-.97.28-1.66.373-.523.653-.989.82-1.53.299.13.56.243.84.392.466.242.895.522 1.306.82.652.485 1.23 1.026 1.734 1.642.056.056 1.1 1.399.15 3.133-.504.933-1.232 1.959-2.052 2.742-1.847 1.79-3.134 2.276-3.656 2.518-.093.075-.168.112-.224.13zM24.478 14.907c-1.399-.037-2.742.168-4.048.671.243.523.41 1.1.41 1.66 0 .877.579 1.008.896 1.157 1.492.765 2.76 1.846 3.73 3.133.15.205.187.224.317.448 0 0 .485-1.828.373-3.563-.018-.354-.074-1.212-.298-2.163-.317-1.343-1.156-1.325-1.38-1.343zM17.82 13.284c.559.187 1.1.504 1.547.895.84.746 1.38.523 1.754.43 1.007-.28 2.07-.43 3.115-.411.317 0 .634.019.97.056 0 0-.523-1.343-1.66-2.723-.523-.634-1.101-1.157-1.549-1.53-.895-.746-1.585-.149-1.772 0-1.007.914-1.753 1.866-2.35 3.152l-.056.131z" clip-rule="evenodd"/>
    <path fill="#fff" fill-rule="evenodd" d="M13.641 8.77c.243-2.443 1.25-4.57 2.817-6.173.317-.336 1.23-1.623 3.917-1.045.82.168 1.566.504 2.256.82 2.09.896 3.153 2.034 3.563 2.575.15.205-.056.242-.056.242-2.126.112-4.887 2.574-5.241 2.91-.877.802-1.921 1.977-3.078 3.693-.28.429-.597 1.194-1.753 1.306-.597.056-1.194.242-1.716.54-.634-1.548-.877-3.208-.709-4.868z" clip-rule="evenodd"/>
    <path fill="#fff" d="M100.391 10.897c0 .205-.038.391-.149.522-.094.15-.28.261-.523.354-.242.094-.597.15-1.044.206-.448.037-1.026.055-1.716.055h-1.325l.02-.391c.018-.466.148-.877.354-1.25.205-.373.503-.69.858-.914.354-.224.783-.354 1.268-.354.466 0 .858.074 1.194.205.335.13.596.336.783.597.186.242.28.578.28.97zm2.76.354c0-.709-.13-1.343-.391-1.921-.262-.56-.616-1.045-1.045-1.436-.448-.392-.951-.709-1.511-.914-.56-.205-1.156-.317-1.772-.317-.839 0-1.622.149-2.331.447-.709.299-1.324.728-1.828 1.287-.522.56-.914 1.231-1.194 2.033-.28.784-.429 1.679-.429 2.668 0 .727.112 1.398.317 2.014.206.615.504 1.156.877 1.641.373.485.802.896 1.306 1.231.484.336 1.025.597 1.585.784.56.186 1.138.28 1.735.28.802 0 1.492-.075 2.033-.206.541-.13.988-.317 1.324-.56.336-.242.559-.521.709-.838.149-.318.224-.672.205-1.064v-.914h-.131c-.317.28-.671.523-1.081.672-.411.168-.821.28-1.25.336-.43.074-.858.093-1.269.093-.578 0-1.1-.093-1.585-.299-.466-.205-.858-.485-1.156-.839-.299-.354-.485-.802-.579-1.287h1.922c1.305 0 2.35-.093 3.17-.261.821-.187 1.418-.485 1.81-.895.373-.448.559-1.026.559-1.735zm-11.62-1.455V8.752c0-.224-.037-.448-.13-.672-.094-.224-.224-.429-.41-.615-.187-.187-.448-.336-.766-.448-.317-.112-.69-.168-1.156-.168-.783 0-1.436.13-1.996.392-.56.261-1.007.597-1.361 1.026-.355.429-.616.932-.765 1.473-.168.541-.242 1.12-.242 1.716v5.447c0 .41.093.764.26 1.025.169.28.43.485.747.635.317.149.69.223 1.138.223h.82v-6.808c0-.596.075-1.081.243-1.454.149-.373.391-.635.69-.821.298-.168.671-.261 1.119-.261.373 0 .709.037.989.112.28.074.522.149.727.242h.093zm-12.03 4.962c0 .597-.15 1.063-.467 1.361-.317.299-.783.466-1.417.466-.653 0-1.157-.13-1.51-.391-.355-.261-.523-.616-.542-1.082 0-.317.075-.597.243-.82.167-.224.466-.392.876-.504.43-.112 1.008-.168 1.735-.168h1.044v1.138h.038zm2.872-.019v-2.723c0-1.007-.15-1.865-.41-2.556-.28-.69-.634-1.23-1.1-1.64-.467-.411-1.008-.691-1.586-.859-.597-.168-1.231-.261-1.903-.261-.783 0-1.436.093-1.977.261-.54.168-.988.41-1.324.69-.336.28-.597.597-.746.933-.15.336-.242.671-.242 1.007v.951h.111c.112-.13.262-.28.467-.447.205-.15.466-.299.764-.448.299-.13.672-.261 1.082-.336.41-.093.895-.13 1.418-.13.578 0 1.063.056 1.436.186s.653.355.84.672c.186.317.28.746.28 1.305v.15h-1.027c-1.082 0-1.996.093-2.742.28-.746.186-1.361.447-1.809.783-.466.335-.802.727-1.007 1.175-.205.447-.317.932-.298 1.473 0 .541.112 1.045.354 1.511.224.448.54.858.97 1.194.429.335.914.597 1.492.783.578.187 1.212.28 1.921.28h.597c.653 0 1.268-.112 1.81-.317.54-.205 1.006-.485 1.417-.877.391-.373.709-.82.914-1.343.186-.503.298-1.082.298-1.697zm-11.396-3.992v-1.38c0-.466-.15-.895-.41-1.287-.28-.391-.653-.69-1.138-.914-.485-.224-1.045-.335-1.679-.354-.802 0-1.548.112-2.22.336-.67.223-1.25.522-1.771.914-.523.391-.952.839-1.306 1.361-.354.522-.634 1.1-.802 1.716-.187.616-.28 1.269-.28 1.94s.112 1.324.317 1.921c.205.597.504 1.138.877 1.623.373.485.82.914 1.324 1.268.504.355 1.063.634 1.66.82.597.187 1.231.28 1.884.28.709 0 1.324-.111 1.865-.317.522-.205.933-.503 1.213-.857.28-.373.429-.802.447-1.269v-1.361h-.112c-.13.186-.335.354-.615.522-.28.168-.616.298-1.026.41-.41.093-.895.15-1.474.168-.671 0-1.25-.15-1.734-.466-.485-.299-.858-.728-1.138-1.269-.261-.54-.392-1.175-.41-1.902 0-.448.093-.858.26-1.231.169-.373.411-.709.71-.989.298-.28.634-.503 1.026-.671.391-.15.802-.243 1.23-.243.56 0 1.064.056 1.493.168.429.112.802.261 1.081.448.28.187.504.392.635.616h.093zm-11.919 8.02v-6.882c0-.84-.13-1.585-.41-2.238-.261-.653-.634-1.194-1.1-1.641-.467-.448-1.008-.784-1.623-1.008-.616-.223-1.268-.335-1.977-.335-.728 0-1.4.093-1.977.28-.578.186-1.082.447-1.492.783-.43.336-.765.709-1.045 1.138-.28.429-.485.895-.615 1.38-.131.485-.206.988-.206 1.492v5.11c0 .374.094.69.261.99.168.279.41.521.71.69.298.167.67.26 1.081.26h.877v-6.845c0-.56.093-1.044.28-1.436.186-.392.428-.69.745-.895.318-.205.69-.317 1.12-.317.764 0 1.343.223 1.753.69.41.466.634 1.194.634 2.182v4.7c0 .373.093.69.261.989.168.28.43.522.746.69.317.168.69.261 1.138.261h.84v-.037zm-12.049-1.66v-.633h-.54c-.43 0-.784-.038-1.045-.131-.261-.093-.448-.261-.578-.485-.112-.224-.187-.54-.187-.933v-5.52c0-.747-.186-1.306-.56-1.66-.372-.355-.876-.541-1.547-.541h-.84v8.001c0 1.194.299 2.108.914 2.742.597.634 1.474.951 2.63.951.615 0 1.063-.13 1.343-.41.28-.299.41-.765.41-1.38zM44.902 4.37c0-.318-.094-.616-.243-.858-.149-.262-.354-.467-.615-.616-.261-.15-.56-.224-.877-.242-.317 0-.616.074-.858.242-.261.15-.466.354-.615.616-.15.26-.224.54-.243.858 0 .317.075.615.242.858.15.26.355.466.616.634.261.149.541.242.858.242.317 0 .615-.093.877-.242.26-.15.466-.355.615-.634.15-.262.243-.541.243-.858zm-4.757 1.25v-.99c0-.391-.112-.727-.298-1.007-.205-.28-.466-.484-.802-.634-.336-.149-.727-.224-1.156-.224-.69 0-1.287.094-1.81.299-.503.186-.95.448-1.305.765s-.653.652-.877 1.044c-.224.373-.373.765-.485 1.157-.093.391-.15.746-.15 1.1v9.923c0 .354.094.653.262.914.168.26.373.466.634.615.28.15.56.224.877.224h1.175v-7.89h1.268c.243 0 .504-.037.746-.112.243-.074.467-.186.672-.317.205-.149.373-.317.485-.522.13-.205.186-.448.186-.709v-.82h-3.376V7.39c0-.522.093-.932.28-1.212.187-.28.429-.485.746-.616.317-.112.672-.168 1.082-.168.354 0 .671.02.951.075.28.056.522.112.765.187h.13v-.038zM99.458 29.53v-5.335h1.026v2.835l1.194-1.361h1.268l-1.324 1.417 1.417 2.463h-1.1l-.97-1.735-.485.503v1.232h-1.026v-.02zm-1.007 0h-1.026v-1.977c0-.41-.019-.69-.075-.802-.037-.13-.111-.224-.205-.28-.093-.075-.224-.093-.354-.093-.187 0-.336.056-.485.149-.15.093-.242.224-.299.392-.055.167-.074.447-.074.895v1.753h-1.026v-3.86h.951v.559c.336-.43.765-.653 1.269-.653.223 0 .429.037.615.13.187.075.336.187.43.318.092.13.167.26.204.429.038.167.056.391.056.69v2.35h.019zm-5.521-1.847c-.13.038-.336.094-.616.15-.28.056-.466.111-.56.186-.13.093-.204.224-.204.354 0 .15.056.261.168.373.111.112.242.15.41.15.186 0 .354-.056.522-.187.13-.093.205-.205.243-.336.018-.093.037-.26.037-.503v-.187zm-1.38-.839l-.933-.168c.112-.373.28-.653.541-.82.261-.187.634-.262 1.138-.262.466 0 .802.056 1.026.168.224.112.373.243.466.41.093.168.13.467.13.914L93.9 28.28c0 .336.018.597.056.746.037.168.093.336.186.523h-1.007c-.019-.075-.056-.168-.093-.299-.019-.056-.037-.093-.037-.112-.168.168-.355.299-.56.392-.205.093-.41.13-.634.13-.392 0-.709-.111-.933-.317-.224-.224-.335-.485-.335-.82 0-.224.055-.41.149-.579.112-.167.242-.298.447-.391.187-.094.467-.168.821-.243.485-.093.802-.168.989-.242v-.094c0-.205-.056-.335-.15-.428-.093-.075-.28-.131-.54-.131-.187 0-.318.037-.43.112-.13.018-.205.13-.28.317zm-5.055.354v1.418h.989c.391 0 .634-.019.746-.037.168-.038.298-.094.391-.206.094-.111.15-.26.15-.447 0-.168-.038-.299-.112-.41-.075-.112-.187-.187-.336-.243-.15-.056-.466-.075-.951-.075h-.877zm0-2.107v1.23h.709c.429 0 .671 0 .783-.018.187-.019.336-.093.43-.187.111-.111.148-.242.148-.41 0-.168-.037-.298-.13-.41-.093-.112-.224-.168-.41-.187-.112-.018-.41-.018-.914-.018h-.616zm-1.082-.896h2.127c.429 0 .746.02.95.056.206.038.392.112.56.224.168.112.299.261.41.448.113.186.169.392.169.615 0 .243-.075.485-.206.69-.13.206-.317.373-.54.467.317.093.578.26.746.485.167.224.26.503.26.802 0 .242-.055.485-.167.709-.112.223-.261.41-.466.54-.187.131-.43.224-.728.261-.186.02-.615.038-1.306.038h-1.809v-5.335zm-3.917 3.078c0-.299-.074-.522-.223-.671-.15-.15-.317-.224-.541-.224-.224 0-.41.074-.56.242-.15.168-.224.392-.224.672h1.548v-.019zm-.074 1.026l1.026.168c-.13.373-.336.652-.616.858-.28.205-.634.298-1.063.298-.672 0-1.175-.224-1.492-.653-.261-.354-.392-.802-.392-1.324 0-.634.168-1.138.504-1.51.336-.355.764-.542 1.268-.542.578 0 1.026.187 1.362.578.335.373.485.97.485 1.754h-2.556c0 .298.094.54.243.709.149.167.354.26.597.26.168 0 .298-.037.41-.13.093-.13.187-.261.224-.466zm-3.003-1.492l-1.007.186c-.038-.205-.112-.354-.224-.447-.112-.094-.28-.15-.466-.15-.262 0-.467.094-.616.261-.15.168-.224.467-.224.877 0 .466.075.784.224.97.15.186.354.28.616.28.186 0 .354-.056.485-.168.13-.112.205-.299.26-.578l1.008.168c-.112.466-.299.802-.597 1.044-.299.242-.69.354-1.194.354-.56 0-1.007-.186-1.343-.54-.335-.355-.503-.858-.503-1.474 0-.634.168-1.138.503-1.492.336-.354.802-.541 1.362-.541.466 0 .84.093 1.119.298.28.224.466.541.597.952zm-4.402 2.723h-1.026v-1.977c0-.41-.019-.69-.074-.802-.038-.13-.112-.224-.206-.28-.093-.075-.223-.093-.354-.093-.186 0-.336.056-.485.149-.15.093-.242.224-.298.392-.056.167-.075.447-.075.895v1.753h-1.026v-3.86h.951v.559c.336-.43.765-.653 1.269-.653.224 0 .429.037.615.13.187.075.336.187.43.318.093.13.167.26.204.429.038.167.056.391.056.69v2.35h.02zm-5.54-1.847c-.13.038-.335.094-.615.15-.28.056-.466.111-.56.186-.13.093-.205.224-.205.354 0 .15.056.261.168.373.112.112.243.15.41.15.187 0 .355-.056.523-.187.13-.093.205-.205.242-.336.019-.093.038-.26.038-.503v-.187zm-1.361-.839l-.933-.168c.112-.373.28-.653.541-.82.261-.187.634-.262 1.138-.262.466 0 .802.056 1.026.168.224.112.373.243.466.41.093.168.13.467.13.914l-.018 1.194c0 .336.019.597.056.746.037.168.093.336.186.523h-1.007c-.018-.075-.056-.168-.093-.299-.019-.056-.037-.093-.037-.112-.168.168-.355.299-.56.392-.205.093-.41.13-.634.13-.392 0-.709-.111-.933-.317-.223-.224-.335-.485-.335-.82 0-.224.056-.41.149-.579.112-.167.242-.298.448-.391.186-.094.466-.168.82-.243.485-.093.802-.168.989-.242v-.094c0-.205-.056-.335-.15-.428-.093-.075-.28-.131-.54-.131-.187 0-.317.037-.43.112-.13.018-.223.13-.28.317zm-1.81 2.686h-1.025v-1.977c0-.41-.019-.69-.075-.802-.037-.13-.112-.224-.205-.28-.093-.075-.224-.093-.354-.093-.187 0-.336.056-.485.149-.15.093-.243.224-.299.392-.056.167-.074.447-.074.895v1.753h-1.026v-3.86h.951v.559c.336-.43.765-.653 1.268-.653.224 0 .43.037.616.13.186.075.336.187.429.318.093.13.168.26.205.429.037.167.056.391.056.69v2.35h.019zm-5.576 0v-3.861h1.026v3.86H59.73zm0-4.383v-.952h1.026v.952H59.73zm-4.551 4.383v-5.335h3.655v.896H56.26v1.268h2.22v.895h-2.22v2.276H55.18zm-4.141 0v-5.335h1.026v5.335h-1.026zm-2.07 0v-5.335h1.025v5.335h-1.025zm-2.015-1.847c-.13.038-.335.094-.615.15-.28.056-.467.111-.56.186-.13.093-.205.224-.205.354 0 .15.056.261.168.373.112.112.242.15.41.15.187 0 .355-.056.522-.187.131-.093.206-.205.243-.336.019-.093.037-.26.037-.503v-.187zm-1.38-.839l-.932-.168c.111-.373.28-.653.54-.82.262-.187.635-.262 1.138-.262.466 0 .802.056 1.026.168.224.112.373.243.466.41.093.168.13.467.13.914l-.018 1.194c0 .336.019.597.056.746.038.168.093.336.187.523h-1.008c-.018-.075-.056-.168-.093-.299-.018-.056-.037-.093-.037-.112-.168.168-.355.299-.56.392-.205.093-.41.13-.634.13-.392 0-.709-.111-.932-.317-.224-.224-.336-.485-.336-.82 0-.224.056-.41.15-.579.111-.167.242-.298.447-.391.186-.094.466-.168.82-.243.485-.093.802-.168.989-.242v-.094c0-.205-.056-.335-.15-.428-.093-.075-.279-.131-.54-.131-.187 0-.317.037-.43.112-.13.018-.204.13-.279.317zm-7.46-1.175h.95v.522c.336-.41.747-.615 1.213-.615.242 0 .466.056.634.149.187.093.336.261.448.466.168-.205.354-.354.54-.466.206-.093.411-.15.635-.15.28 0 .522.057.727.169.205.111.336.28.448.503.075.168.112.43.112.802v2.462h-1.026v-2.2c0-.392-.037-.635-.112-.747-.093-.149-.242-.224-.429-.224-.15 0-.28.038-.41.13-.13.094-.224.225-.28.393-.056.168-.093.429-.093.802v1.865h-1.026v-2.127c0-.372-.019-.615-.056-.727-.037-.112-.093-.186-.168-.242-.075-.056-.187-.075-.317-.075-.15 0-.298.037-.43.13-.13.094-.223.206-.279.374-.056.168-.075.429-.075.802v1.884h-1.025v-3.88h.018zm-5.167 2.126l1.044-.112c.056.355.187.616.392.784.187.168.448.242.783.242.355 0 .616-.075.784-.224.168-.149.26-.317.26-.522 0-.13-.036-.242-.111-.317-.075-.093-.205-.168-.392-.224-.13-.037-.41-.13-.858-.242-.578-.15-.988-.317-1.212-.523-.336-.298-.485-.652-.485-1.081 0-.28.075-.523.224-.765.149-.243.373-.41.671-.541.299-.13.634-.186 1.045-.186.671 0 1.175.149 1.51.447.336.299.523.69.541 1.175l-1.081.056c-.038-.28-.15-.466-.299-.597-.149-.112-.373-.186-.69-.186-.317 0-.56.056-.727.186-.112.075-.168.187-.168.336 0 .13.056.242.168.317.13.112.466.243.988.354.523.131.914.262 1.157.392.242.13.447.317.596.541.15.224.206.522.206.858 0 .299-.094.597-.261.858-.168.261-.41.466-.728.597-.317.13-.69.186-1.156.186-.672 0-1.194-.149-1.548-.466-.373-.298-.579-.746-.653-1.343z"/>
</svg>
