<svg xmlns="http://www.w3.org/2000/svg" width="45" height="12" fill="none" viewBox="0 0 45 12">
    <path fill="#fff" d="M1.722 11H4.13c2.198 0 3.654-1.162 4.48-5.04C9.436 2.026 8.372.92 6.426.92H3.864L1.722 11zm3.01-9.198h1.26c1.344 0 2.38.294 1.568 4.158-.798 3.752-1.848 4.158-3.318 4.158H2.954l1.778-8.316zM18.052.92h-5.236L10.674 11h5.334l.182-.882h-4.284l.826-3.85h3.01l.182-.882h-3.01l.77-3.584h4.186l.182-.882zM20.047 10.118l.84-3.92h1.316c1.596 0 2.086.994 1.848 2.114-.266 1.26-1.302 1.806-2.24 1.806h-1.764zm1.652.882c1.764 0 3.108-1.274 3.416-2.744.28-1.302-.182-2.058-1.218-2.618.924-.462 1.582-1.204 1.792-2.17C26.193 1.06 24.233.92 23.07.92h-2.114L18.815 11h2.884zm1.26-9.198c.644 0 2.044-.042 1.694 1.624-.252 1.204-1.428 1.89-2.366 1.89h-1.218l.756-3.514h1.134zM34.11.92h-3.78l-.183.882h1.358l-1.778 8.316H28.37l-.182.882h3.78l.182-.882h-1.372l1.778-8.316h1.372L34.11.92zM44.168.92h-6.734l-.182.882h2.814L38.106 11h1.05l1.96-9.198h2.87l.182-.882z"/>
</svg>
