<svg xmlns="http://www.w3.org/2000/svg" width="24" height="24" fill="none" viewBox="0 0 24 24">
    <path fill="#B01D22" d="M19.5 12.36c0-.196-.078-.376-.234-.524l-5.18-5.164c-.172-.172-.336-.234-.524-.234-.382 0-.68.28-.68.671 0 .188.063.368.188.493l1.75 1.78 2.625 2.4-1.883-.118H5.68c-.407 0-.688.29-.688.695 0 .407.281.696.688.696h9.883l1.89-.117-2.633 2.398-1.75 1.781c-.125.117-.187.305-.187.492 0 .391.297.672.68.672.187 0 .351-.07.507-.218l5.196-5.18c.156-.149.234-.328.234-.524z"/>
</svg>
