<svg xmlns="http://www.w3.org/2000/svg" width="97" height="30" fill="none" viewBox="0 0 97 30">
    <path fill="#DE1C23" fill-rule="evenodd" d="M9.787 2.247c3.29-1.445 6.25-1.236 6.25-1.236-.244.191-.297.243-.505.452-1.95 1.741-3.151 4.126-3.412 6.72-.14 1.358 0 2.715.383 4.004.104.33.383.679-.383 1.775-.262.366-.47.766-.61 1.202-3.325-1.515-5.518-4.823-5.692-8.426-.018-.453-.383-2.002 2.454-3.726.418-.26.958-.522 1.515-.765z" clip-rule="evenodd"/>
    <path fill="#F05323" fill-rule="evenodd" d="M5.208 5.293c.018-.122-.33.226-.766.714-.748.818-1.845 2.437-2.89 5.31-.208.556-.313 1.166-.435 1.723-.47 2.454.592 3.342 1.045 3.708.174.156.366.296.557.435 1.34.975 2.977 1.636 4.753 1.81 1.218.122 2.437 0 3.603-.33.279-.087.557-.175.818-.279-.174-.313-.313-.661-.4-1.01-.052-.191-.087-.348-.122-.574-.052-.4-.087-.644-.174-.836-.226-.47-.87-.696-1.097-.818-1.619-.923-2.646-2.106-3.551-3.69-.679-1.184-1.132-2.49-1.306-3.865-.104-.749-.122-1.515-.035-2.298z" clip-rule="evenodd"/>
    <path fill="#F6881F" fill-rule="evenodd" d="M8.011 25.852c.14-.034.261-.087.4-.121 2.594-.87 4.77-2.838 5.867-5.467-.47-.139-.853-.33-1.306-.661-.33-.244-.557-.47-.8-.488-.349-.034-.853.175-1.15.262-1.183.313-2.42.4-3.638.278-1.636-.157-3.168-.696-4.508-1.532-.749-.47-1.793-1.445-1.793-1.445.052.836.07.87.121 1.236 0 0 .21 2.194 1.463 4.3.661 1.097 1.41 2.09 2.002 2.768 1.445 1.636 2.628 1.08 3.342.87z" clip-rule="evenodd"/>
    <path fill="#F99B1C" fill-rule="evenodd" d="M6.723 26.897s1.462-.279 2.246-.575c2.21-.835 4.126-2.42 5.327-4.526.244-.418.383-1.253 1.514-1.305.575-.018 1.167-.227 1.671-.523.122.296.175.575.262.888.104.383.191.766.243 1.166.122.801.14 1.602.07 2.403-.07.731-.226 1.445-.453 2.106-.174.505-.783 2.002-2.332 2.28-.906.157-2.09.297-3.639.07-3.116-.47-4.909-1.984-4.909-1.984z" clip-rule="evenodd"/>
    <path fill="#FCB316" fill-rule="evenodd" d="M17.603 28.133s.035-.018.157-.314c.156-.348.348-.783.435-1.027.261-.766.435-1.549.522-2.385.122-1.323.018-2.663-.365-3.916-.21-.697-.192-.906.26-1.55.349-.487.61-.922.767-1.427.278.122.522.226.783.365.435.227.836.488 1.219.766.609.453 1.149.958 1.619 1.532.052.052 1.027 1.306.139 2.925-.47.87-1.15 1.828-1.915 2.559-1.724 1.671-2.925 2.124-3.412 2.35-.087.07-.157.104-.209.122z" clip-rule="evenodd"/>
    <path fill="#FDBA12" fill-rule="evenodd" d="M22.913 13.98c-1.306-.035-2.56.156-3.778.626.227.488.383 1.027.383 1.55 0 .818.54.94.836 1.079 1.393.714 2.576 1.723 3.482 2.925.139.191.174.208.296.417 0 0 .452-1.706.348-3.325-.018-.33-.07-1.131-.279-2.019-.296-1.253-1.08-1.236-1.288-1.253z" clip-rule="evenodd"/>
    <path fill="#FFD800" fill-rule="evenodd" d="M16.698 12.465c.522.174 1.027.47 1.445.836.783.696 1.288.487 1.636.4.94-.26 1.932-.4 2.907-.383.296 0 .592.018.905.053 0 0-.487-1.254-1.549-2.542-.487-.592-1.027-1.08-1.445-1.428-.835-.696-1.48-.139-1.654 0-.94.853-1.636 1.741-2.193 2.942l-.052.122z" clip-rule="evenodd"/>
    <path fill="#B01D22" fill-rule="evenodd" d="M12.799 8.252c.226-2.28 1.166-4.265 2.628-5.762.296-.313 1.15-1.514 3.656-.975.766.157 1.462.47 2.107.766 1.95.836 2.941 1.898 3.325 2.403.139.191-.053.226-.053.226-1.984.105-4.56 2.402-4.891 2.716-.819.748-1.794 1.845-2.873 3.447-.26.4-.557 1.114-1.636 1.218-.557.053-1.114.226-1.602.505-.592-1.445-.818-2.994-.661-4.543z" clip-rule="evenodd"/>
    <path fill="#B01D22" d="M93.764 10.237c0 .191-.034.365-.139.487-.087.14-.261.244-.487.331-.227.087-.557.14-.975.192-.418.034-.958.052-1.602.052h-1.236l.018-.366c.017-.435.139-.818.33-1.166.192-.348.47-.644.801-.853.331-.209.731-.33 1.184-.33.435 0 .8.069 1.114.19.313.123.557.314.731.558.174.226.261.54.261.905zm2.577.33c0-.66-.122-1.253-.366-1.792-.243-.523-.574-.975-.975-1.34-.417-.366-.887-.662-1.41-.854-.522-.191-1.079-.296-1.653-.296-.784 0-1.515.14-2.177.418-.661.279-1.236.679-1.706 1.201-.487.523-.853 1.15-1.114 1.898-.26.73-.4 1.566-.4 2.49 0 .678.104 1.305.296 1.88.191.574.47 1.079.818 1.531.348.453.749.836 1.219 1.15.452.313.957.556 1.48.73.522.174 1.061.261 1.618.261.749 0 1.393-.07 1.898-.191.505-.122.922-.296 1.236-.522.313-.227.522-.488.661-.784.14-.296.21-.626.192-.992v-.853h-.122c-.296.261-.627.487-1.01.627-.383.156-.766.26-1.166.313-.4.07-.8.087-1.184.087-.54 0-1.027-.087-1.48-.278-.435-.192-.8-.453-1.079-.784-.278-.33-.452-.748-.54-1.201h1.794c1.218 0 2.193-.087 2.959-.244.766-.174 1.323-.452 1.689-.835.348-.418.522-.958.522-1.62zM85.496 9.21v-.975c0-.209-.035-.418-.122-.627-.087-.209-.21-.4-.383-.574-.174-.174-.418-.314-.714-.418-.296-.104-.644-.157-1.08-.157-.73 0-1.34.122-1.862.366s-.94.557-1.27.957c-.332.4-.575.87-.715 1.376-.156.504-.226 1.044-.226 1.601v5.083c0 .383.087.714.244.958.156.261.4.453.696.592.296.14.644.209 1.062.209h.766v-6.354c0-.557.07-1.01.226-1.358.14-.348.366-.592.644-.766.279-.157.627-.244 1.045-.244.348 0 .661.035.922.105.262.07.488.139.68.226h.087zm-11.229 4.63c0 .558-.14.993-.435 1.271-.296.279-.731.435-1.323.435-.61 0-1.08-.121-1.41-.365-.331-.244-.488-.574-.505-1.01 0-.296.07-.557.226-.766.157-.209.435-.365.818-.47.4-.104.94-.156 1.62-.156h.974v1.062h.035zm2.681-.017v-2.542c0-.94-.14-1.74-.383-2.384-.261-.645-.592-1.15-1.027-1.532-.435-.383-.94-.645-1.48-.801-.557-.157-1.149-.244-1.776-.244-.73 0-1.34.087-1.845.244-.505.156-.922.383-1.236.644-.313.261-.557.557-.696.87-.14.314-.226.627-.226.94v.888h.104c.105-.122.244-.26.435-.418.192-.139.436-.278.714-.417.279-.122.627-.244 1.01-.314.383-.087.835-.122 1.323-.122.54 0 .992.053 1.34.174.348.122.61.331.784.627.174.296.26.697.26 1.219v.139h-.957c-1.01 0-1.862.087-2.559.261-.696.174-1.27.418-1.688.731-.436.314-.749.68-.94 1.097-.192.418-.296.87-.279 1.375 0 .505.105.975.33 1.41.21.418.506.801.906 1.114.4.314.853.558 1.393.732.54.174 1.131.26 1.793.26h.557c.61 0 1.184-.104 1.688-.295.505-.192.94-.453 1.323-.818.366-.349.662-.766.853-1.254.175-.47.279-1.01.279-1.584zm-10.636-3.725V8.809c0-.435-.14-.835-.383-1.2-.262-.366-.61-.645-1.062-.854-.453-.209-.975-.313-1.567-.33-.749 0-1.445.104-2.072.313-.627.209-1.166.487-1.654.853-.487.365-.887.783-1.218 1.27-.33.488-.592 1.028-.749 1.602-.174.575-.26 1.184-.26 1.81 0 .627.104 1.237.295 1.794.192.557.47 1.062.818 1.514.349.453.766.853 1.236 1.184.47.33.993.592 1.55.766.557.174 1.149.261 1.758.261.661 0 1.236-.104 1.74-.296.488-.191.871-.47 1.132-.8.261-.349.4-.75.418-1.184V14.24h-.104c-.122.174-.314.33-.575.487-.261.157-.574.279-.957.383-.383.087-.836.14-1.376.157-.626 0-1.166-.14-1.618-.435-.453-.279-.801-.68-1.063-1.184-.243-.505-.365-1.097-.382-1.776 0-.417.087-.8.243-1.149.157-.348.383-.661.662-.922.278-.261.592-.47.957-.627.366-.14.749-.226 1.15-.226.521 0 .991.052 1.392.156.4.105.748.244 1.01.418.26.174.47.366.591.575h.087zm-11.124 7.485V11.16c0-.784-.122-1.48-.383-2.09-.244-.609-.592-1.114-1.027-1.531-.436-.418-.94-.731-1.515-.94-.575-.21-1.184-.314-1.845-.314-.68 0-1.306.087-1.846.261-.54.174-1.01.418-1.392.732-.4.313-.714.661-.975 1.061-.261.4-.453.836-.575 1.289-.122.452-.191.922-.191 1.392v4.77c0 .348.087.644.244.923.156.261.383.487.661.644.279.157.627.244 1.01.244h.818v-6.39c0-.521.087-.974.261-1.34.174-.365.4-.644.696-.835.296-.192.645-.296 1.045-.296.714 0 1.253.209 1.636.644.383.435.592 1.114.592 2.037v4.387c0 .348.087.644.244.922.157.261.4.488.696.644.296.157.644.244 1.062.244h.783v-.035zm-11.246-1.55v-.59h-.505c-.4 0-.731-.036-.975-.123s-.418-.244-.54-.452c-.104-.21-.174-.505-.174-.87V8.843c0-.696-.174-1.218-.522-1.549-.348-.33-.818-.505-1.445-.505h-.783V14.258c0 1.114.278 1.967.853 2.56.557.591 1.375.887 2.454.887.575 0 .993-.122 1.254-.383.26-.278.383-.714.383-1.288zM41.975 4.145c0-.296-.087-.574-.227-.8-.139-.244-.33-.436-.574-.575-.244-.14-.522-.21-.818-.227-.296 0-.575.07-.801.227-.244.14-.435.33-.575.574-.139.244-.208.505-.226.801 0 .296.07.575.226.8.14.245.331.436.575.593.244.139.505.226.8.226.297 0 .575-.087.819-.226.244-.14.435-.331.574-.592.14-.244.227-.505.227-.801zm-4.44 1.166v-.922c0-.366-.104-.68-.278-.94-.191-.261-.435-.453-.749-.592-.313-.14-.678-.21-1.079-.21-.644 0-1.201.088-1.689.28-.47.174-.887.417-1.218.713-.33.296-.61.61-.818.975-.21.348-.349.714-.453 1.08-.087.365-.14.696-.14 1.026v9.262c0 .33.088.609.244.853.157.243.349.435.592.574.262.14.523.21.819.21h1.096v-7.365h1.184c.226 0 .47-.034.696-.104.227-.07.436-.174.627-.296.192-.14.348-.296.453-.487.122-.192.174-.418.174-.662v-.766h-3.151v-.975c0-.487.087-.87.261-1.131.174-.261.4-.453.696-.575.296-.104.627-.156 1.01-.156.33 0 .627.017.888.07.261.051.487.104.714.173h.121V5.31z"/>
    <path fill="#fff" d="M92.894 27.628V22.65h.958v2.646l1.114-1.27h1.184l-1.236 1.323 1.323 2.298H95.21l-.905-1.62-.453.47v1.15h-.958v-.018zm-.94 0h-.957v-1.845c0-.383-.017-.644-.07-.749-.034-.121-.104-.209-.191-.26-.087-.07-.209-.088-.33-.088-.175 0-.314.052-.454.14-.139.087-.226.208-.278.365-.052.157-.07.418-.07.836v1.636h-.957v-3.604h.888v.523c.313-.4.714-.61 1.184-.61.208 0 .4.035.574.122.174.07.313.174.4.296.087.122.157.244.192.4.035.157.052.366.052.645v2.193h.017zm-5.152-1.723c-.122.034-.314.087-.575.139-.261.052-.435.104-.522.174-.122.087-.192.209-.192.33 0 .14.053.245.157.349.105.105.226.14.383.14.174 0 .33-.053.487-.175.122-.087.192-.191.227-.313.017-.087.035-.244.035-.47v-.174zm-1.289-.784l-.87-.156c.104-.349.261-.61.505-.766.243-.174.592-.244 1.062-.244.435 0 .748.052.957.157.21.104.348.226.435.383.087.156.122.435.122.853l-.017 1.114c0 .313.017.557.052.696.035.157.087.313.174.488h-.94c-.017-.07-.052-.157-.087-.279-.017-.052-.035-.087-.035-.104-.156.156-.33.278-.522.365-.192.087-.383.122-.592.122-.366 0-.661-.104-.87-.296-.21-.209-.314-.453-.314-.766 0-.209.053-.383.14-.54.104-.156.226-.278.417-.365.175-.087.436-.157.766-.226.453-.087.749-.157.923-.227v-.087c0-.191-.052-.313-.14-.4-.086-.07-.26-.122-.504-.122-.174 0-.296.035-.4.104-.122.018-.192.122-.262.296zm-4.717.331v1.323h.922c.366 0 .592-.017.697-.035.156-.034.278-.087.365-.191.087-.105.14-.244.14-.418 0-.157-.035-.279-.105-.383-.07-.104-.174-.174-.313-.226-.14-.052-.435-.07-.888-.07h-.818zm0-1.967v1.149h.661c.4 0 .627 0 .731-.018.174-.017.314-.087.4-.174.105-.104.14-.226.14-.383 0-.156-.035-.278-.122-.383-.087-.104-.209-.156-.383-.174-.104-.017-.383-.017-.853-.017h-.574zm-1.01-.836h1.985c.4 0 .696.018.887.053.192.034.366.104.523.208.156.105.278.244.383.418.104.174.156.366.156.575 0 .226-.07.452-.191.644-.122.191-.296.348-.505.435.296.087.54.244.696.453.157.209.244.47.244.748 0 .227-.052.453-.157.662-.104.209-.243.383-.435.505-.174.121-.4.208-.679.243-.174.018-.574.035-1.218.035h-1.689V22.65zm-3.656 2.873c0-.279-.07-.488-.209-.627-.139-.14-.296-.209-.504-.209-.21 0-.383.07-.523.227-.139.156-.209.365-.209.626h1.445v-.017zm-.07.957l.958.157c-.122.348-.313.61-.574.8-.261.192-.592.28-.993.28-.626 0-1.096-.21-1.392-.61-.244-.33-.366-.749-.366-1.236 0-.592.157-1.062.47-1.41.314-.33.714-.505 1.184-.505.54 0 .957.174 1.27.54.314.348.453.905.453 1.636h-2.385c0 .279.087.505.227.662.139.156.33.243.557.243.157 0 .278-.035.383-.122.087-.121.174-.243.209-.435zm-2.802-1.392l-.94.174c-.035-.192-.105-.331-.209-.418-.105-.087-.261-.14-.435-.14-.244 0-.435.088-.575.244-.139.157-.209.436-.209.819 0 .435.07.73.21.905.139.174.33.26.574.26.174 0 .33-.051.452-.156.122-.104.192-.278.244-.54l.94.157c-.104.435-.278.749-.557.975-.278.226-.644.33-1.114.33-.522 0-.94-.173-1.253-.504-.314-.33-.47-.8-.47-1.375 0-.592.156-1.062.47-1.393.313-.33.748-.505 1.27-.505.436 0 .784.087 1.045.279.261.209.435.505.557.887zm-4.108 2.541h-.958v-1.845c0-.383-.017-.644-.07-.749-.034-.121-.104-.209-.191-.26-.087-.07-.209-.088-.33-.088-.175 0-.314.052-.453.14-.14.087-.227.208-.279.365-.052.157-.07.418-.07.836v1.636h-.957v-3.604h.888v.523c.313-.4.714-.61 1.184-.61.209 0 .4.035.574.122.174.07.313.174.4.296.087.122.157.244.192.4.035.157.052.366.052.645v2.193h.018zm-5.17-1.723c-.123.034-.314.087-.575.139-.261.052-.435.104-.522.174-.122.087-.192.209-.192.33 0 .14.052.245.157.349.104.105.226.14.383.14.174 0 .33-.053.487-.175.122-.087.192-.191.226-.313.018-.087.035-.244.035-.47v-.174zm-1.271-.784l-.87-.156c.104-.349.26-.61.504-.766.244-.174.592-.244 1.062-.244.435 0 .748.052.957.157.21.104.348.226.436.383.087.156.121.435.121.853l-.017 1.114c0 .313.017.557.052.696.035.157.087.313.174.488h-.94c-.017-.07-.052-.157-.087-.279-.017-.052-.035-.087-.035-.104-.156.156-.33.278-.522.365-.191.087-.383.122-.592.122-.365 0-.661-.104-.87-.296-.21-.209-.314-.453-.314-.766 0-.209.053-.383.14-.54.104-.156.226-.278.417-.365.175-.087.436-.157.767-.226.452-.087.748-.157.922-.227v-.087c0-.191-.052-.313-.14-.4-.086-.07-.26-.122-.504-.122-.174 0-.296.035-.4.104-.122.018-.21.122-.261.296zm-1.69 2.507h-.957v-1.845c0-.383-.017-.644-.07-.749-.034-.121-.104-.209-.19-.26-.088-.07-.21-.088-.331-.088-.174 0-.314.052-.453.14-.14.087-.226.208-.279.365-.052.157-.07.418-.07.836v1.636h-.957v-3.604h.888v.523c.313-.4.714-.61 1.184-.61.209 0 .4.035.574.122.174.07.314.174.4.296.088.122.157.244.192.4.035.157.052.366.052.645v2.193h.018zm-5.204 0v-3.603h.957v3.603h-.957zm0-4.09v-.889h.957v.888h-.957zm-4.248 4.09V22.65h3.412v.836h-2.402v1.184h2.071v.835h-2.071v2.124h-1.01zm-3.864 0V22.65h.957v4.98h-.957zm-1.933 0V22.65h.958v4.98h-.958zm-1.88-1.723c-.122.034-.313.087-.574.139-.262.052-.436.104-.523.174-.121.087-.191.209-.191.33 0 .14.052.245.157.349.104.105.226.14.383.14.174 0 .33-.053.487-.175.122-.087.191-.191.226-.313.018-.087.035-.244.035-.47v-.174zm-1.288-.784l-.87-.156c.104-.349.26-.61.504-.766.244-.174.592-.244 1.062-.244.435 0 .749.052.958.157.209.104.348.226.435.383.087.156.122.435.122.853l-.018 1.114c0 .313.018.557.052.696.035.157.088.313.175.488h-.94c-.018-.07-.053-.157-.087-.279-.018-.052-.035-.087-.035-.104-.157.156-.331.278-.523.365-.191.087-.383.122-.591.122-.366 0-.662-.104-.87-.296-.21-.209-.314-.453-.314-.766 0-.209.052-.383.14-.54.104-.156.225-.278.417-.365.174-.087.435-.157.766-.226.453-.087.748-.157.922-.227v-.087c0-.191-.052-.313-.139-.4-.087-.07-.26-.122-.505-.122-.174 0-.296.035-.4.104-.122.018-.191.122-.261.296zm-6.963-1.096h.887v.487c.314-.383.697-.574 1.132-.574.226 0 .435.052.592.139.174.087.313.244.418.435.156-.191.33-.33.504-.435.192-.087.383-.14.592-.14.261 0 .488.053.68.157.19.105.313.261.417.47.07.157.105.4.105.749v2.298h-.958v-2.054c0-.366-.035-.592-.104-.697-.088-.139-.227-.209-.4-.209-.14 0-.262.035-.384.122s-.209.21-.26.366c-.053.156-.088.4-.088.748v1.741h-.957v-1.984c0-.349-.018-.575-.053-.68-.035-.104-.087-.173-.156-.226-.07-.052-.174-.07-.296-.07-.14 0-.279.036-.4.123-.122.087-.21.191-.262.348-.052.156-.07.4-.07.748v1.759h-.957v-3.621h.017zm-4.823 1.984l.975-.104c.052.33.174.574.366.73.174.158.418.227.731.227.33 0 .575-.07.731-.209.157-.139.244-.296.244-.487 0-.122-.035-.227-.105-.296-.07-.087-.191-.157-.365-.209-.122-.035-.383-.122-.8-.226-.54-.14-.924-.296-1.133-.488-.313-.278-.452-.609-.452-1.01 0-.26.07-.487.209-.713.14-.227.348-.383.627-.505.278-.122.591-.174.974-.174.627 0 1.097.14 1.41.418.314.278.488.644.505 1.096l-1.01.053c-.034-.261-.139-.435-.278-.557-.14-.105-.348-.174-.644-.174-.296 0-.522.052-.679.174-.104.07-.157.174-.157.313 0 .122.053.226.157.296.122.104.435.226.923.33.487.122.853.244 1.079.366.226.122.418.296.557.505.14.209.192.488.192.8 0 .28-.087.558-.244.802-.157.243-.383.435-.68.557-.295.122-.643.174-1.078.174-.627 0-1.115-.14-1.445-.435-.348-.279-.54-.697-.61-1.254z"/>
</svg>
